Weekly IDSR Reports
…
These reports summarise conditions notified to the NMC Surveillance System (NMCSS) for each CDC epiweek. They cover Category 1 & 2 notifications flagged for WHO IDSR reporting, with confirmed trends, epitable, and all-notifications overview.

<span class="latest-hero-label">Latest Report</span>
<p class="latest-hero-title">Epiweek 11, 2026</p>
<p class="latest-hero-sub">15 March – 21 March 2026</p>

<a href="rendered/2026-W11-weekly-report.html" class="btn btn-primary" target="_blank">View Report</a>
<a href="rendered/2026-W11-weekly-report.docx" class="btn btn-outline-secondary" download="2026-W11-weekly-report.docx">&#8595;&nbsp;Download Word</a>

What’s currently circulating

Confirmed Category 1 & 2 notifications for selected conditions — last two years. Rolling 4-week average shown in red.

[1] "You selected levels: epiweekyear"
# A tibble: 396 × 8
   condition year  epiweek     n roll_avg ci_upper ci_lower cumulative
   <chr>     <fct> <fct>   <dbl>    <dbl>    <dbl>    <dbl>      <dbl>
 1 Cholera   2025  1           0    0      0           3.69          0
 2 Cholera   2025  2           0    0      0           3.69          0
 3 Cholera   2025  3           0    0      0           3.69          0
 4 Cholera   2025  4           0    0      0           3.69          0
 5 Cholera   2025  5           0    0      0           3.69          0
 6 Cholera   2025  6           0    0      0           3.69          0
 7 Cholera   2025  7           0    0      0           3.69          0
 8 Cholera   2025  8           0    0      0           3.69          0
 9 Cholera   2025  9           0    0      0           3.69          0
10 Cholera   2025  10          1    0.286  0.00723     4.23          1
# ℹ 386 more rows
[1] "Adding Line"

# A tibble: 396 × 8
   condition year  epiweek     n roll_avg ci_upper ci_lower cumulative
   <chr>     <fct> <fct>   <dbl>    <dbl>    <dbl>    <dbl>      <dbl>
 1 Cholera   2025  1           0    0      0           3.69          0
 2 Cholera   2025  2           0    0      0           3.69          0
 3 Cholera   2025  3           0    0      0           3.69          0
 4 Cholera   2025  4           0    0      0           3.69          0
 5 Cholera   2025  5           0    0      0           3.69          0
 6 Cholera   2025  6           0    0      0           3.69          0
 7 Cholera   2025  7           0    0      0           3.69          0
 8 Cholera   2025  8           0    0      0           3.69          0
 9 Cholera   2025  9           0    0      0           3.69          0
10 Cholera   2025  10          1    0.286  0.00723     4.23          1
# ℹ 386 more rows
…
